<?xml version="1.0" encoding="utf-16"?>
<!-- Generator: Adobe Illustrator 26.5.3, SVG Export Plug-In . SVG Version: 6.00 Build 0)  -->
<svg version="1.1" id="Calque_1" xmlns="http://www.w3.org/2000/svg" xmlns:xlink="http://www.w3.org/1999/xlink" x="0px" y="0px"
	 width="205.2px" height="102.7px" viewBox="0 0 410.5 205.4" style="enable-background:new 0 0 410.5 205.4;" xml:space="preserve"
	>
<style type="text/css">
	.st0{fill-rule:evenodd;clip-rule:evenodd;fill:#9323EB;}
	.st1{fill:#9323EB;}
	.st2{fill:#12100B;}
</style>
<g>
	<path class="st0" d="M150.4,0.2c5.3,1.2,10.4,2.5,10.8,8.5c2.2-0.2,3.5,0.4,5.5,0.4c-4,3-7.2,5.5-13.2,4.6
		c-1.4-0.2-2.7,0.9-4.1,0.9c0.3-0.9-0.4-0.9-0.5-1.4c1.6-0.9,3.8-1.2,5.2-2.3c-0.6-2.2-0.2-4.2-1.6-5.9c0.2-0.6,0.4-1.3,0.4-1.6
		C151.4,2.8,150,1.7,150.4,0.2z"/>
	<path class="st0" d="M288.5,0.4c0.3-0.1,0.3,0.2,0.5,0.2c0.6,3,1.8,5.4,2.5,8.4c2,0.1,4.1,0.2,5.2,1.2c-2,0.1-2.8,1.2-4.1,2
		c0.9,2.5,1.7,5.1,2.3,8c-1.4,0.3-2.7-1.2-3.9-2c-0.4-0.3-1.2-0.1-1.6-0.4c-1.6-1-2.9-3.3-3-4.6c-0.5,0-0.8-0.1-1.1-0.4
		c-1.2,0.5-1.9,1.5-3.6,1.6c-0.1-0.3-0.3-0.4-0.5-0.5c-0.1-0.8,0.6-0.7,0.7-1.2c-0.3-0.2-1,0.1-1.4-0.4c0-0.7-0.2-0.5,0-1.1
		c1.7-0.2,3.7-0.2,5-0.9c-1.4-1.9-0.7-3.3-0.5-5.7c0.7-0.2,0.7-1,1.4-1.2c-0.6-1.4,1.1-1.5,1.1-2.5c0.6-0.2,0.4,0.3,0.7,0.4
		C288.5,1.1,288.4,0.7,288.5,0.4z"/>
	<path class="st0" d="M157.7,26.7c3.7,1.4,7.5,2.8,8.7,6.8c1.6,0.2,2.5,1,3.9,1.4c-3.1,0.7-5.8,2.8-9.8,2.5c-1.7-0.1-3.6-1-5.5-0.5
		c1.1-1.1,3.5-1,4.8-2c-0.9-1.5,0.2-2.8-0.4-4.4C159.1,29.5,156.7,27.9,157.7,26.7z"/>
	<path class="st0" d="M389.2,33.3c3.9,1,7.7,2.1,9.8,5c-0.1,0.8-0.6,1.3-0.2,2.1c2-0.4,3.4,0.5,5.5,0.5c-3.8,1.8-7.1,5.2-12.4,3.7
		c-1.2-0.3-3.1-0.5-5,0c0-0.8,0.3-0.9-0.4-1.1c1.8-0.6,4-0.9,5.5-1.8c-0.2-0.7-0.3-2.3,0-3c-1.3-1.2-2-2.8-3-4.6c0.2,0,0.5,0,0.7,0
		C389.7,33.7,389.1,33.8,389.2,33.3z"/>
	<path class="st0" d="M357.4,47.7c0.1,0.7-0.3,0.9-0.2,1.6c1.3,0.6,3.6,0.3,5.2,0.7c-2.8,1.3-4.8,4-8.5,4.3
		c-1.7,0.1-3.4-0.6-5.2-0.5c-1.1,0-2.5,1-3.2-0.4c1.7-0.8,3.8-1.2,5.3-2.1c0.7-2.8-1.7-3.1-3.6-3.9c0.5-0.7,0-0.3-0.2-1.1
		C350.7,45.9,355.3,45.9,357.4,47.7z"/>
	<path class="st0" d="M319,57.8c0.1,0.8-0.3,1.1-0.2,2c1.7,0,3.5,0.4,5.5,0.5c-4.8,2.4-7.2,7.1-13.2,8.4c0.4-1.5,1.6-2.3,2.1-3.7
		c-1.3-1.7-2.9,0.5-4.6,0.5c-0.5-0.5-0.6-1.4-0.5-2.5c2-0.6,4.9-0.5,3.9-3.2c-0.8-0.8-2.1-1.1-3.2-1.6c0.6-0.9-0.5-0.7-0.5-1.4
		C311.5,56.1,317,55.7,319,57.8z"/>
	<path class="st0" d="M298.3,65.3c-0.1,0.7-0.3,1.2,0.2,1.6c2.2-0.4,4,0.2,5.9,0.5c-4.9,1.6-7,6-12.6,6.9c0.2-1.3,1.2-1.8,1.6-2.8
		c-2.4-0.8-3,0.8-5,1.2c-1.2-0.6-0.8-1.7-1.8-2.3c1.9-0.3,3.6-0.9,5.2-1.6c-0.3-0.3-0.1-1.2-0.2-1.8c-1.1,0.1-3.7,0.5-4.1-0.7
		C290.4,65.4,295.3,63.8,298.3,65.3z"/>
	<path class="st0" d="M335,68.5c-1,0.6-2.1,1.3-3,2c0.1,2.2-1,3.2-1.6,4.6c2.2-0.2,3.8,0.2,5.5,0.5c-1.6,0.5-2.7,1.6-4.1,2.3
		c-1.3,3.6-4.3,5.6-7.6,7.1c0-0.5,0.1-0.9-0.5-0.7c0.9-1.3,1.2-3,2-4.4c-2-1.1-4.4,0.5-6,0.2c0-0.3,0.1-0.7-0.2-0.7
		c2.6-0.9,4.5-2.5,6.9-3.6c0-0.5,0.1-1.2,0.7-1.6c0.1-2.9-3.5-2.3-5.3-1.8c-0.2-0.4-0.6-0.6-0.5-1.2c0.6-0.1,1.1-0.3,1.8-0.4
		C326,68.4,330,67.3,335,68.5z"/>
	<path class="st0" d="M390.1,72.7c1.3,2.6,2.2,5.6,3.2,8.5c1.7-0.5,3.1,0.2,4.6,0.4c-1.7,0.5-2.8,1.6-3.9,2.7
		c0.1,2.7,3.8,2.2,2.7,5.7c1.3,0.3,3.3,0.3,5,0.7c-3.2,1.8-5.9,4.1-10.5,3.7c-1.6-0.1-3.1-0.5-4.6,0.4c0.3-0.8-0.6-1-0.2-1.4
		c2.2,0.1,3.1-1.1,4.6-1.6c-1-2-2.5-3.4-3-5.9c-2-0.4-2.6,1.4-4.6,1.4c-0.4-0.6,0.7-1,0.9-1.6c-0.4,0.1-0.7,0.3-1.2,0.2
		c-0.1-0.4-0.4-0.7-0.4-1.2c1.7-0.5,4-0.5,5-1.8c-1.6-1.7-1.4-4.9,0.4-6.2c-0.4-1.4,0.3-1.5,0.4-2.7c0.6,0.6,0.9-0.2,0.7-0.9
		c0.5,0.1,0.4,0.8,0.9,0.9C389.9,73.5,389.8,73,390.1,72.7z"/>
	<path class="st0" d="M173.7,73.1c1.6,3.1,3.8,5.6,5.3,8.9c1.3-0.5,2.8,0,4.1,0.2c-0.9,0.7-1.9,1.3-2.8,2c0.8,0.9,1.2,2.1,1.4,3.6
		c-3.3,0.5-5.4-1.9-8.5-1.2c-0.9,0.2-1.4,1.3-2.7,0.7c-0.4-0.4,0.1-0.7,0.2-1.1c-0.4,0-0.9,0-1.1-0.2c0.9-1.3,3.7-0.8,4.4-2.3
		c-2.3-2.6-2-7.4-1.2-10.1C173.5,73.5,173.5,73.7,173.7,73.1z"/>
	<path class="st0" d="M410.5,95.3c-1.4,0.7-2.6,1.7-3.9,2.5c1.4,1.9,0.9,6.6,0.5,9.2c-0.5-0.2-0.8-0.9-1.1,0c-0.5-0.6-1.2-1.1-2-1.4
		c0-0.4,0-0.8,0-1.2c-0.4-0.4-0.8-0.8-1.6-0.9c-0.4-1.6-1.4-2.6-2-4.1c-1.8-0.6-3.5,0.2-5,0.5c-0.3-0.5,0.6-1.2-0.5-1.2
		C400,97,404.1,93.4,410.5,95.3z"/>
	<path class="st0" d="M328,125c0.1,0.7-0.2,0.9-0.2,1.4c1.8,0.2,3.6,0.5,5.2,0.9c-3.5,2-6.9,4.1-12.1,4.4c0.1-0.3,0.4-0.4,0.4-0.9
		c-1.7-0.3-2.2,0.6-3.7,0.5c0-0.3-0.1-0.6-0.4-0.7c1.4-0.9,3.3-1.2,4.6-2.1c-0.2-0.7-0.2-1.1,0-1.8c-0.8-1-3.4-0.2-3.6-1.8
		C320.6,124.1,325.9,123.5,328,125z"/>
	<path class="st0" d="M265.6,137.3c-1.4,0.4-2.1,1.5-3.4,2.1c0.7,3.3-1.4,6.7-2.3,9.6c-0.5-0.2-0.3-1-1.1-0.5
		c-0.4-1.3-0.9-2.6-0.4-3.6c0.1-0.7-0.8-0.4-0.9-0.9c0.2-1.4-0.5-1.9-0.9-2.8c-2-0.1-3.1-0.1-4.6,0.4c-0.4-0.7-0.2-0.9-0.9-1.4
		C255.9,139.2,259.4,135.5,265.6,137.3z"/>
	<path class="st0" d="M193.4,1.6c0.3,0-0.2-0.6,0-1.1c0.7-0.1,0.5,0.8,1.1,0.9c0-0.7-0.3-0.8,0-1.4c0.9,0.6,0.9,1.5,1.4,2.5
		c1.2,2.4,2.8,4.4,3.6,7.1c1.8-0.8,3.9,0,5.9,0.2c-1.6,0.7-3,1.7-4.3,2.7c0.4,0.8,0.3,2,0.5,3c-1.4-0.2-2.9-0.6-4.1-0.5
		c-2.9,3.3-9.3,2-14.2,2.5c0.5-0.8-0.2-0.5-0.4-1.1c1.7-0.5,3.3-1,4.6-1.8c0-0.2-0.3-0.9,0.7-0.9c-0.2-0.5-0.8,0.3-1.1-0.2
		c0.1-0.5,1-0.3,1.1-0.9c-0.9-1.4-0.1-3-0.7-5.2c0.2-0.1,0.4-0.2,0.7-0.2c-1.7-0.8-0.1-3.1-0.7-4.6c0.9,0.3,0.5-0.1,0.9-0.5
		c1.2,0.8,2,2.1,2.8,3.2c0.3-0.4,0.3-1.1,0.5-1.6c0.3,0,0.7-0.1,0.7,0.2c0.3-0.3,0.4-0.8,0.7-1.1c0-0.7-0.6-0.7-0.5-1.4
		C192.9,1.2,193.4,1.2,193.4,1.6z"/>
	<path class="st0" d="M229.2,115.9c3.5,0.3,6.5,2.5,8.5,4.8c0,0.7,0,1.3,0,2c1.5,0.6,3.6,0.5,5.2,1.1c-3.2,1-4.7,3.7-9.1,3.6
		c-0.3,0.6,0.3,1.4,0.4,2.1c2-0.1,3.5,0.2,5.2,0.4c-1.3,0.7-2.4,1.5-3.6,2.3c0.4,0.8,1,1.4,1.2,2.3c-2.9,0.5-8.1-1.7-10.3,0.5
		c-0.8,0-1.4-0.4-2.3-0.4c0-0.7-0.7-0.7-0.4-1.4c1.7-0.5,3.5-0.9,4.4-2.1c-1-1.4-0.6-2.8-1.4-4.1c0.5-0.7,0.5-2,1.1-2.7
		c-1.1-1.1,0.2-1.9,0.4-3.2c0.5-0.1,0.4,0.4,0.7,0.4c0.4-0.2-0.2-0.7,0-1.2c0.4-0.4,0.5,0.2,0.7,0.5c0.7-0.1-0.2-1,0.7-1.1
		c0.1,0.6,0.3,1,0.4,1.6c0.7-1.6-1.6-3.1-2.1-4.6C228.7,116.3,229.8,116.2,229.2,115.9z"/>
	<path class="st0" d="M333,149.4c-0.4,0.3,0.1,0.4-0.2,0.9c-3-1.1-4-4.3-5.3-7.1c-2.3-0.7-3.4,1.3-5.3,0.9c-0.1-0.6,0.5-0.5,0.5-0.9
		c-0.1-0.4-0.8-0.1-0.9-0.5c1.1-1.4,3.9-1,5-2.3c-2-2.7-0.1-5.5,0.2-7.8c0.7-0.2,0.6,0.4,1.1,0.5c0-0.8-0.2-0.7,0-1.2
		c1.2,2.6,4.3,3.4,5,6.6c2.1-0.5,3.6,0.2,5.3,0.5c-1.8,0.5-3.1,1.6-4.3,2.7c1.5,2.8,1.8,6.8,2.1,10.7c-0.6,0.1-0.7-0.2-0.9-0.5
		c-0.4,0,0,0.8-0.4,0.9c-0.5-0.4-1.2-0.7-1.4-1.4c-0.6-0.2-0.1,0.6-0.7,0.4C331.9,150.7,333.5,150.2,333,149.4z"/>
</g>
<path class="st1" d="M6.9,33.3c-0.6,0-1.2-0.5-1.4-1.1l-1.4-9v8.7c0,0.8-0.7,1.4-1.4,1.4H1.6c-0.8,0-1.4-0.6-1.4-1.4V7.7
	c0-0.8,0.6-1.4,1.4-1.4h1.2c0.6,0,1.2,0.5,1.4,1.1l3.2,16.2l3.1-16.2c0.1-0.6,0.8-1.1,1.4-1.1h1.2c0.8,0,1.4,0.6,1.4,1.4v24.2
	c0,0.8-0.6,1.4-1.4,1.4H12c-0.8,0-1.4-0.6-1.4-1.4v-8.6l-1.3,8.9c-0.2,0.6-0.8,1.2-1.4,1.2H6.9z"/>
<path class="st1" d="M30.9,26h-4.1l-1.4,6.3c-0.2,0.6-0.8,1.1-1.4,1.1h-1.2c-1,0-1.6-0.8-1.4-1.7l1.9-8.5L27,7.4
	c0.2-0.6,0.8-1.1,1.4-1.1h0.9c0.6,0,1.3,0.5,1.4,1.1l5.5,24.2c0.2,0.9-0.4,1.8-1.4,1.8h-1.2c-0.6,0-1.2-0.5-1.4-1.1L30.9,26z
	 M27.7,22H30c-0.4-1.9-0.4-3-1.1-6.4L27.7,22z"/>
<path class="st1" d="M47.8,31.9c0,0.8-0.7,1.4-1.4,1.4h-1.1c-0.8,0-1.4-0.6-1.4-1.4V7.7c0-0.8,0.6-1.4,1.4-1.4h1.1
	c0.8,0,1.4,0.6,1.4,1.4V31.9z"/>
<path class="st1" d="M55.3,25c0-0.8,0.6-1.4,1.4-1.4h1.1c0.8,0,1.4,0.6,1.4,1.4v0.5c0,1.9,0.4,2.9,0.9,3.3c0.4,0.4,1.1,0.5,1.7,0.5
	c1.7,0,2.6-0.7,2.6-2.9c0-1.9-1.8-3.4-3.8-4.9v0c-2.7-2.1-5.4-4.3-5.4-8.2c0-4.5,2.4-7.1,6.6-7.1c4.3,0,6.6,2.8,6.6,7.9v0.6
	c0,0.8-0.6,1.4-1.4,1.4H66c-0.8,0-1.4-0.6-1.4-1.4v-0.6c0-2.7-0.8-3.9-2.6-3.9c-1.7,0-2.6,0.9-2.6,3c0,2,2,3.6,3.9,5.1h0
	c2.7,2,5.3,4.1,5.3,8c0,4.5-2.4,6.9-6.6,6.9c-4.4,0-6.6-2.6-6.6-7.8V25z"/>
<path class="st1" d="M76.1,14.1c0-5.1,2.2-7.8,6.6-7.8c4.4,0,6.6,2.7,6.6,7.8v11.4c0,3.2-0.8,5-2.1,6.3c-1.3,1.3-3,1.6-4.5,1.6
	c-1.4,0-3.1-0.3-4.5-1.6c-1.2-1.2-2.1-3.1-2.1-6.3V14.1z M80.1,25.5c0,2.7,0.8,3.9,2.6,3.9c1.7,0,2.6-1.2,2.6-3.9V14.1
	c0-2.7-0.8-3.9-2.6-3.9c-1.8,0-2.6,1.2-2.6,3.9V25.5z"/>
<path class="st1" d="M108.2,33.3c-0.5,0-1.2-0.4-1.3-0.9l-5.6-13.8v13.3c0,0.8-0.7,1.4-1.4,1.4h-1.2c-0.8,0-1.4-0.6-1.4-1.4V7.7
	c0-0.8,0.7-1.4,1.4-1.4h1c0.5,0,1.2,0.4,1.3,0.9l5.6,13.8V7.7c0-0.8,0.6-1.4,1.4-1.4h1.1c0.8,0,1.4,0.6,1.4,1.4v24.2
	c0,0.8-0.6,1.4-1.4,1.4H108.2z"/>
<path class="st2" d="M1.8,76.4c-0.8,0-1.4-0.6-1.4-1.4V50.7c0-0.8,0.6-1.4,1.4-1.4h4.1c4.8,0,7.1,2.7,7.1,8v11.2c0,5.2-2.2,8-7.1,8
	H1.8z M4.3,53.3v19.1h1.6c2.1,0,3-1.3,3-4V57.2c0-2.7-0.9-4-3-4H4.3z"/>
<path class="st2" d="M31.2,49.3c0.8,0,1.4,0.6,1.4,1.4v1.1c0,0.8-0.6,1.4-1.4,1.4H25v7.6h5.1c0.8,0,1.4,0.6,1.4,1.4v1.1
	c0,0.8-0.6,1.4-1.4,1.4H25v7.6h6.1c0.8,0,1.4,0.6,1.4,1.4v1.1c0,0.8-0.6,1.4-1.4,1.4h-8.7c-0.8,0-1.4-0.6-1.4-1.4V50.7
	c0-0.8,0.6-1.4,1.4-1.4H31.2z"/>
<path class="st2" d="M64.5,74.9c0,0.8-0.6,1.4-1.4,1.4h-8.6c-0.8,0-1.4-0.6-1.4-1.4V50.7c0-0.8,0.6-1.4,1.4-1.4h1.2
	c0.8,0,1.4,0.6,1.4,1.4v21.6h6c0.8,0,1.4,0.6,1.4,1.4V74.9z"/>
<path class="st2" d="M81.2,69h-4.1l-1.4,6.3c-0.2,0.6-0.8,1.1-1.4,1.1h-1.2c-1,0-1.6-0.8-1.4-1.7l1.9-8.5l3.7-15.7
	c0.2-0.6,0.8-1.1,1.4-1.1h0.9c0.6,0,1.3,0.5,1.4,1.1l5.5,24.2c0.2,0.9-0.4,1.8-1.4,1.8h-1.2c-0.6,0-1.2-0.5-1.4-1.1L81.2,69z M78,65
	h2.2c-0.4-1.9-0.4-3-1.1-6.4L78,65z"/>
<path class="st2" d="M0.2,100.1c0-3.1,0.9-5.1,2.2-6.3c1.3-1.2,2.9-1.6,4.5-1.6c1.5,0,3.1,0.4,4.4,1.6c1.3,1.2,2.1,3.2,2.1,6.3v0.6
	c0,0.8-0.6,1.4-1.4,1.4h-1.2c-0.8,0-1.4-0.6-1.4-1.4v-0.6c0-2.7-0.9-3.9-2.5-3.9c-1.7,0-2.6,1.2-2.6,3.9v11.4c0,2.7,0.8,3.9,2.6,3.9
	c0.8,0,1.5-0.3,1.8-0.7c0.5-0.6,0.7-1.7,0.7-3.2V111c0-0.8,0.6-1.4,1.4-1.4H12c0.8,0,1.4,0.6,1.4,1.4v0.6c0,3.2-0.8,5-2.1,6.3
	c-1.3,1.3-3,1.6-4.5,1.6c-1.5,0-3.2-0.3-4.5-1.6c-1.2-1.2-2.1-3.1-2.1-6.3V100.1z"/>
<path class="st2" d="M33.9,117.9c0,0.8-0.6,1.4-1.4,1.4h-1.1c-0.8,0-1.4-0.6-1.4-1.4v-6.7c0-2-1.1-3.1-3.1-3.1h-1.8v9.8
	c0,0.8-0.6,1.4-1.4,1.4h-1.1c-0.8,0-1.4-0.6-1.4-1.4V93.7c0-0.8,0.6-1.4,1.4-1.4h5.1c4.9,0,6.7,2.5,6.7,7.9c0,2.5-0.4,4.5-1.7,5.7
	c-0.1,0.1-0.2,0.2-0.3,0.3c1.2,1.2,1.7,2.9,1.7,5V117.9z M24.9,104h1.8c2.2,0,3.4-1.1,3.4-3.9c0-2.7-0.6-3.9-2.7-3.9h-2.5V104z"/>
<path class="st2" d="M51.8,92.3c0.8,0,1.4,0.6,1.4,1.4v1.1c0,0.8-0.6,1.4-1.4,1.4h-6.1v7.6h5.1c0.8,0,1.4,0.6,1.4,1.4v1.1
	c0,0.8-0.6,1.4-1.4,1.4h-5.1v7.6h6.1c0.8,0,1.4,0.6,1.4,1.4v1.1c0,0.8-0.6,1.4-1.4,1.4h-8.7c-0.8,0-1.4-0.6-1.4-1.4V93.8
	c0-0.8,0.6-1.4,1.4-1.4H51.8z M43.8,88c0,0,4-3.3,6.8-3.3c1.4,0,2,1.8,0.8,2.6c0,0-4.4,3.3-6.9,3.3C43.2,90.6,42.7,88.8,43.8,88z"/>
<path class="st2" d="M70.3,112h-4.1l-1.4,6.3c-0.2,0.6-0.8,1.1-1.4,1.1h-1.2c-1,0-1.6-0.8-1.4-1.7l1.9-8.5l3.7-15.7
	c0.2-0.6,0.8-1.1,1.4-1.1h0.9c0.6,0,1.3,0.5,1.4,1.1l5.5,24.2c0.2,0.9-0.4,1.8-1.4,1.8h-1.2c-0.6,0-1.2-0.5-1.4-1.1L70.3,112z
	 M67.1,108h2.2c-0.4-1.9-0.4-3-1.1-6.4L67.1,108z"/>
<path class="st2" d="M79.2,93.7c0-0.8,0.6-1.4,1.4-1.4h10.5c0.8,0,1.4,0.6,1.4,1.4v1.1c0,0.8-0.6,1.4-1.4,1.4h-3.3v21.6
	c0,0.8-0.6,1.4-1.4,1.4h-1.1c-0.8,0-1.4-0.6-1.4-1.4V96.3h-3.3c-0.8,0-1.4-0.6-1.4-1.4V93.7z"/>
<path class="st2" d="M104.1,117.9c0,0.8-0.7,1.4-1.4,1.4h-1.1c-0.8,0-1.4-0.6-1.4-1.4V93.8c0-0.8,0.6-1.4,1.4-1.4h1.1
	c0.8,0,1.4,0.6,1.4,1.4V117.9z"/>
<path class="st2" d="M111.7,100.1c0-5.1,2.2-7.8,6.6-7.8c4.4,0,6.6,2.7,6.6,7.8v11.4c0,3.2-0.8,5-2.1,6.3c-1.3,1.3-3,1.6-4.5,1.6
	c-1.4,0-3.1-0.3-4.5-1.6c-1.2-1.2-2.1-3.1-2.1-6.3V100.1z M115.7,111.5c0,2.7,0.8,3.9,2.6,3.9c1.7,0,2.6-1.2,2.6-3.9v-11.4
	c0-2.7-0.8-3.9-2.6-3.9c-1.8,0-2.6,1.2-2.6,3.9V111.5z"/>
<path class="st2" d="M143.7,119.4c-0.5,0-1.2-0.4-1.3-0.9l-5.6-13.8v13.3c0,0.8-0.7,1.4-1.4,1.4h-1.2c-0.8,0-1.4-0.6-1.4-1.4V93.8
	c0-0.8,0.7-1.4,1.4-1.4h1c0.5,0,1.2,0.4,1.3,0.9l5.6,13.8V93.8c0-0.8,0.6-1.4,1.4-1.4h1.1c0.8,0,1.4,0.6,1.4,1.4v24.2
	c0,0.8-0.6,1.4-1.4,1.4H143.7z"/>
<path class="st2" d="M10.4,135.3c0.8,0,1.4,0.6,1.4,1.4v1.1c0,0.8-0.6,1.4-1.4,1.4H4.2v7.6h5.1c0.8,0,1.4,0.6,1.4,1.4v1.1
	c0,0.8-0.6,1.4-1.4,1.4H4.2v7.6h6.1c0.8,0,1.4,0.6,1.4,1.4v1.1c0,0.8-0.6,1.4-1.4,1.4H1.7c-0.8,0-1.4-0.6-1.4-1.4v-24.2
	c0-0.8,0.6-1.4,1.4-1.4H10.4z"/>
<path class="st2" d="M19.1,136.7c0-0.8,0.6-1.4,1.4-1.4h10.5c0.8,0,1.4,0.6,1.4,1.4v1.1c0,0.8-0.6,1.4-1.4,1.4h-3.3v21.6
	c0,0.8-0.6,1.4-1.4,1.4h-1.1c-0.8,0-1.4-0.6-1.4-1.4v-21.6h-3.3c-0.8,0-1.4-0.6-1.4-1.4V136.7z"/>
<path class="st2" d="M55,162.4c-0.8,0-1.4-0.6-1.4-1.4v-24.2c0-0.8,0.6-1.4,1.4-1.4h4.1c4.8,0,7.1,2.7,7.1,8v11.2c0,5.2-2.2,8-7.1,8
	H55z M57.5,139.3v19.1h1.6c2.1,0,3-1.3,3-4v-11.2c0-2.7-0.9-4-3-4H57.5z"/>
<path class="st2" d="M84.3,135.3c0.8,0,1.4,0.6,1.4,1.4v1.1c0,0.8-0.6,1.4-1.4,1.4h-6.1v7.6h5.1c0.8,0,1.4,0.6,1.4,1.4v1.1
	c0,0.8-0.6,1.4-1.4,1.4h-5.1v7.6h6.1c0.8,0,1.4,0.6,1.4,1.4v1.1c0,0.8-0.6,1.4-1.4,1.4h-8.7c-0.8,0-1.4-0.6-1.4-1.4v-24.2
	c0-0.8,0.6-1.4,1.4-1.4H84.3z"/>
<path class="st2" d="M11.4,204c0,0.8-0.6,1.4-1.4,1.4H1.4c-0.8,0-1.4-0.6-1.4-1.4v-24.2c0-0.8,0.6-1.4,1.4-1.4h1.2
	c0.8,0,1.4,0.6,1.4,1.4v21.6h6c0.8,0,1.4,0.6,1.4,1.4V204z"/>
<path class="st2" d="M22.3,182.9c0,0.8-0.6,1.4-1.4,1.4h-1.1c-0.8,0-1.4-0.6-1.4-1.4v-3.1c0-0.8,0.6-1.4,1.4-1.4h1.1
	c0.8,0,1.4,0.6,1.4,1.4V182.9z"/>
<path class="st2" d="M32.5,204c0,0.8-0.7,1.4-1.4,1.4h-1.1c-0.8,0-1.4-0.6-1.4-1.4v-24.2c0-0.8,0.6-1.4,1.4-1.4H31
	c0.8,0,1.4,0.6,1.4,1.4V204z"/>
<path class="st2" d="M51,205.4c-0.5,0-1.2-0.4-1.3-0.9l-5.6-13.8V204c0,0.8-0.7,1.4-1.4,1.4h-1.2c-0.8,0-1.4-0.6-1.4-1.4v-24.2
	c0-0.8,0.7-1.4,1.4-1.4h1c0.5,0,1.2,0.4,1.3,0.9l5.6,13.8v-13.3c0-0.8,0.6-1.4,1.4-1.4h1.1c0.8,0,1.4,0.6,1.4,1.4V204
	c0,0.8-0.6,1.4-1.4,1.4H51z"/>
<path class="st2" d="M72.3,205.4c-0.5,0-1.2-0.4-1.3-0.9l-5.6-13.8V204c0,0.8-0.7,1.4-1.4,1.4h-1.2c-0.8,0-1.4-0.6-1.4-1.4v-24.2
	c0-0.8,0.7-1.4,1.4-1.4h1c0.5,0,1.2,0.4,1.3,0.9l5.6,13.8v-13.3c0-0.8,0.6-1.4,1.4-1.4h1.1c0.8,0,1.4,0.6,1.4,1.4V204
	c0,0.8-0.6,1.4-1.4,1.4H72.3z"/>
<path class="st2" d="M82.6,186.2c0-5.1,2.2-7.8,6.6-7.8c4.4,0,6.6,2.7,6.6,7.8v11.4c0,3.2-0.8,5-2.1,6.3c-1.3,1.3-3,1.6-4.5,1.6
	c-1.4,0-3.1-0.3-4.5-1.6c-1.2-1.2-2.1-3.1-2.1-6.3V186.2z M86.6,197.6c0,2.7,0.8,3.9,2.6,3.9c1.7,0,2.6-1.2,2.6-3.9v-11.4
	c0-2.7-0.8-3.9-2.6-3.9c-1.8,0-2.6,1.2-2.6,3.9V197.6z"/>
<path class="st2" d="M109.6,194.7l3.6-15.3c0.1-0.6,0.8-1.1,1.4-1.1h1.2c1,0,1.6,0.8,1.4,1.8l-5.7,24.2c-0.2,0.6-0.8,1.1-1.4,1.1
	h-0.8c-0.6,0-1.3-0.5-1.4-1.1l-5.7-24.2c-0.2-0.9,0.4-1.8,1.4-1.8h1.1c0.6,0,1.2,0.5,1.4,1.1L109.6,194.7z"/>
<path class="st2" d="M129.6,198h-4.1l-1.4,6.3c-0.2,0.6-0.8,1.1-1.4,1.1h-1.2c-1,0-1.6-0.8-1.4-1.7l1.9-8.5l3.7-15.7
	c0.2-0.6,0.8-1.1,1.4-1.1h0.9c0.6,0,1.3,0.5,1.4,1.1l5.5,24.2c0.2,0.9-0.4,1.8-1.4,1.8h-1.2c-0.6,0-1.2-0.5-1.4-1.1L129.6,198z
	 M126.4,194.1h2.2c-0.4-1.9-0.4-3-1.1-6.4L126.4,194.1z"/>
<path class="st2" d="M138.4,179.8c0-0.8,0.6-1.4,1.4-1.4h10.5c0.8,0,1.4,0.6,1.4,1.4v1.1c0,0.8-0.6,1.4-1.4,1.4h-3.3v21.6
	c0,0.8-0.6,1.4-1.4,1.4h-1.1c-0.8,0-1.4-0.6-1.4-1.4v-21.6h-3.3c-0.8,0-1.4-0.6-1.4-1.4V179.8z"/>
<path class="st2" d="M163.4,204c0,0.8-0.7,1.4-1.4,1.4h-1.1c-0.8,0-1.4-0.6-1.4-1.4v-24.2c0-0.8,0.6-1.4,1.4-1.4h1.1
	c0.8,0,1.4,0.6,1.4,1.4V204z"/>
<path class="st2" d="M170.9,186.2c0-5.1,2.2-7.8,6.6-7.8c4.4,0,6.6,2.7,6.6,7.8v11.4c0,3.2-0.8,5-2.1,6.3c-1.3,1.3-3,1.6-4.5,1.6
	c-1.4,0-3.1-0.3-4.5-1.6c-1.2-1.2-2.1-3.1-2.1-6.3V186.2z M175,197.6c0,2.7,0.8,3.9,2.6,3.9c1.7,0,2.6-1.2,2.6-3.9v-11.4
	c0-2.7-0.8-3.9-2.6-3.9c-1.8,0-2.6,1.2-2.6,3.9V197.6z"/>
<path class="st2" d="M203,205.4c-0.5,0-1.2-0.4-1.3-0.9l-5.6-13.8V204c0,0.8-0.7,1.4-1.4,1.4h-1.2c-0.8,0-1.4-0.6-1.4-1.4v-24.2
	c0-0.8,0.7-1.4,1.4-1.4h1c0.5,0,1.2,0.4,1.3,0.9l5.6,13.8v-13.3c0-0.8,0.6-1.4,1.4-1.4h1.1c0.8,0,1.4,0.6,1.4,1.4V204
	c0,0.8-0.6,1.4-1.4,1.4H203z"/>
<path class="st0" d="M149.1,142.7c0.3-0.1,0.3,0.2,0.5,0.2c0.6,3,1.8,5.4,2.5,8.4c2,0.1,4.1,0.2,5.2,1.2c-2,0.1-2.8,1.2-4.1,2
	c0.9,2.5,1.7,5.1,2.3,8c-1.4,0.3-2.7-1.2-3.9-2c-0.4-0.3-1.2-0.1-1.6-0.4c-1.6-1-2.9-3.3-3-4.6c-0.5,0-0.8-0.1-1.1-0.4
	c-1.2,0.5-1.9,1.5-3.6,1.6c-0.1-0.3-0.3-0.4-0.5-0.5c-0.1-0.8,0.6-0.7,0.7-1.2c-0.3-0.2-1,0.1-1.4-0.4c0-0.7-0.2-0.5,0-1.1
	c1.7-0.2,3.7-0.2,5-0.9c-1.4-1.9-0.7-3.3-0.5-5.7c0.7-0.2,0.7-1,1.4-1.2c-0.6-1.4,1.1-1.5,1.1-2.5c0.6-0.2,0.4,0.3,0.7,0.4
	C149,143.4,149,143,149.1,142.7z"/>
</svg>
